[
  {
    "id": "src.main",
    "name": "main",
    "stats": {
      "size": 20057,
      "gzipSize": 6904
    }
  },
  {
    "id": "node_modules.main",
    "name": "node_modules [main]",
    "stats": {
      "size": 196446,
      "gzipSize": 59107
    }
  },
  {
    "id": "atlaskit.core.main",
    "name": "main",
    "stats": {
      "size": 236246,
      "gzipSize": 54974
    }
  },
  {
    "id": "atlaskit.elements.main",
    "name": "main",
    "stats": {
      "size": 2920,
      "gzipSize": 1237
    }
  },
  {
    "id": "atlaskit.home.main",
    "name": "main",
    "stats": {
      "size": 3990,
      "gzipSize": 1472
    }
  },
  {
    "id": "atlaskit.navigation.main",
    "name": "main",
    "stats": {
      "size": 59237,
      "gzipSize": 15696
    }
  },
  {
    "id": "combined.main",
    "name": "main",
    "stats": {
      "size": 509263,
      "gzipSize": 135679
    }
  }
]