[
  {
    "id": "src.main",
    "name": "main",
    "stats": {
      "size": 15781,
      "gzipSize": 4694
    }
  },
  {
    "id": "node_modules.main",
    "name": "node_modules [main]",
    "stats": {
      "size": 77556,
      "gzipSize": 22301
    }
  },
  {
    "id": "atlaskit.core.main",
    "name": "main",
    "stats": {
      "size": 80972,
      "gzipSize": 20088
    }
  },
  {
    "id": "combined.main",
    "name": "main",
    "stats": {
      "size": 171786,
      "gzipSize": 44824
    }
  }
]