[
  {
    "id": "src.main",
    "name": "main",
    "stats": {
      "size": 6040,
      "gzipSize": 2472
    }
  },
  {
    "id": "node_modules.main",
    "name": "node_modules [main]",
    "stats": {
      "size": 93865,
      "gzipSize": 28189
    }
  },
  {
    "id": "atlaskit.core.main",
    "name": "main",
    "stats": {
      "size": 129784,
      "gzipSize": 33530
    }
  },
  {
    "id": "combined.main",
    "name": "main",
    "stats": {
      "size": 225547,
      "gzipSize": 61119
    }
  }
]