[
  {
    "id": "src.main",
    "name": "main",
    "stats": {
      "size": 61046,
      "gzipSize": 10057
    }
  },
  {
    "id": "node_modules.main",
    "name": "node_modules [main]",
    "stats": {
      "size": 6336,
      "gzipSize": 2255
    }
  },
  {
    "id": "atlaskit.core.main",
    "name": "main",
    "stats": {
      "size": 18752,
      "gzipSize": 4939
    }
  },
  {
    "id": "combined.main",
    "name": "main",
    "stats": {
      "size": 85437,
      "gzipSize": 16807
    }
  }
]