[
  {
    "team": "media",
    "package": "@atlaskit/media-card",
    "version": "63.0.3",
    "dependent": true,
    "id": "src.main",
    "name": "main",
    "stats": {
      "size": 6564,
      "gzipSize": 2393
    }
  },
  {
    "team": "media",
    "package": "@atlaskit/media-card",
    "version": "63.0.3",
    "dependent": true,
    "id": "src.async",
    "name": "async",
    "stats": {
      "size": 44624,
      "gzipSize": 10680
    }
  },
  {
    "team": "media",
    "package": "@atlaskit/media-card",
    "version": "63.0.3",
    "dependent": true,
    "id": "node_modules.main",
    "name": "node_modules [main]",
    "stats": {
      "size": 6353,
      "gzipSize": 2277
    }
  },
  {
    "team": "media",
    "package": "@atlaskit/media-card",
    "version": "63.0.3",
    "dependent": true,
    "id": "node_modules.async",
    "name": "node_modules [async]",
    "stats": {
      "size": 1500181,
      "gzipSize": 424916
    }
  },
  {
    "team": "media",
    "package": "@atlaskit/media-card",
    "version": "63.0.3",
    "dependent": true,
    "id": "atlaskit.core.main",
    "name": "main",
    "stats": {
      "size": 24469,
      "gzipSize": 6684
    }
  },
  {
    "team": "media",
    "package": "@atlaskit/media-card",
    "version": "63.0.3",
    "dependent": true,
    "id": "atlaskit.core.async",
    "name": "async",
    "stats": {
      "size": 103094,
      "gzipSize": 23856
    }
  },
  {
    "team": "media",
    "package": "@atlaskit/media-card",
    "version": "63.0.3",
    "dependent": true,
    "id": "atlaskit.media.main",
    "name": "main",
    "stats": {
      "size": 1150,
      "gzipSize": 530
    }
  },
  {
    "team": "media",
    "package": "@atlaskit/media-card",
    "version": "63.0.3",
    "dependent": true,
    "id": "atlaskit.media.async",
    "name": "async",
    "stats": {
      "size": 239038,
      "gzipSize": 57819
    }
  },
  {
    "team": "media",
    "package": "@atlaskit/media-card",
    "version": "63.0.3",
    "dependent": true,
    "id": "combined.main",
    "name": "main",
    "stats": {
      "size": 37917,
      "gzipSize": 10765
    }
  },
  {
    "team": "media",
    "package": "@atlaskit/media-card",
    "version": "63.0.3",
    "dependent": true,
    "id": "combined.async",
    "name": "async",
    "stats": {
      "size": 1884968,
      "gzipSize": 517365
    }
  }
]