[
  {
    "id": "src.main",
    "name": "main",
    "stats": {
      "size": 18801,
      "gzipSize": 5011
    }
  },
  {
    "id": "src.async",
    "name": "async",
    "stats": {
      "size": 16447,
      "gzipSize": 4549
    }
  },
  {
    "id": "node_modules.main",
    "name": "node_modules [main]",
    "stats": {
      "size": 35640,
      "gzipSize": 8635
    }
  },
  {
    "id": "node_modules.async",
    "name": "node_modules [async]",
    "stats": {
      "size": 145111,
      "gzipSize": 42063
    }
  },
  {
    "id": "atlaskit.core.main",
    "name": "main",
    "stats": {
      "size": 23225,
      "gzipSize": 6076
    }
  },
  {
    "id": "atlaskit.core.async",
    "name": "async",
    "stats": {
      "size": 168342,
      "gzipSize": 37360
    }
  },
  {
    "id": "atlaskit.media.main",
    "name": "main",
    "stats": {
      "size": 2311,
      "gzipSize": 905
    }
  },
  {
    "id": "atlaskit.media.async",
    "name": "async",
    "stats": {
      "size": 53378,
      "gzipSize": 11857
    }
  },
  {
    "id": "atlaskit.teamwork-ecosystem.main",
    "name": "main",
    "stats": {
      "size": 623,
      "gzipSize": 365
    }
  },
  {
    "id": "combined.main",
    "name": "main",
    "stats": {
      "size": 78421,
      "gzipSize": 20070
    }
  },
  {
    "id": "combined.async",
    "name": "async",
    "stats": {
      "size": 379857,
      "gzipSize": 93874
    }
  }
]