[
  {
    "id": "src.main",
    "name": "main",
    "stats": {
      "size": 8089,
      "gzipSize": 2791
    }
  },
  {
    "id": "node_modules.main",
    "name": "node_modules [main]",
    "stats": {
      "size": 130221,
      "gzipSize": 38983
    }
  },
  {
    "id": "atlaskit.core.main",
    "name": "main",
    "stats": {
      "size": 52870,
      "gzipSize": 14015
    }
  },
  {
    "id": "combined.main",
    "name": "main",
    "stats": {
      "size": 189672,
      "gzipSize": 54886
    }
  }
]