[
  {
    "id": "src.main",
    "name": "main",
    "stats": {
      "size": 3872,
      "gzipSize": 1635
    }
  },
  {
    "id": "node_modules.main",
    "name": "node_modules [main]",
    "stats": {
      "size": 32396,
      "gzipSize": 10214
    }
  },
  {
    "id": "atlaskit.core.main",
    "name": "main",
    "stats": {
      "size": 22935,
      "gzipSize": 5776
    }
  },
  {
    "id": "combined.main",
    "name": "main",
    "stats": {
      "size": 56623,
      "gzipSize": 16394
    }
  }
]