{
  "version": 1,
  "type": "doc",
  "content": [
    {
      "type": "mediaSingle",
      "attrs": {
        "width": 83.33333333333334,
        "layout": "center"
      },
      "content": [
        {
          "type": "media",
          "attrs": {
            "type": "external",
            "url": "https://lonelyplanetimages.imgix.net/mastheads/65830387.jpg?sharp=10&vib=20&w=1200"
          }
        }
      ]
    },
    {
      "type": "paragraph",
      "content": []
    }
  ]
}