[
  {
    "team": "core",
    "package": "@atlaskit/checkbox",
    "version": "8.0.0",
    "dependent": true,
    "id": "src.main",
    "name": "main",
    "stats": {
      "size": 9802,
      "gzipSize": 2920
    }
  },
  {
    "team": "core",
    "package": "@atlaskit/checkbox",
    "version": "8.0.0",
    "dependent": true,
    "id": "node_modules.main",
    "name": "node_modules [main]",
    "stats": {
      "size": 6746,
      "gzipSize": 2376
    }
  },
  {
    "team": "core",
    "package": "@atlaskit/checkbox",
    "version": "8.0.0",
    "dependent": true,
    "id": "atlaskit.core.main",
    "name": "main",
    "stats": {
      "size": 28243,
      "gzipSize": 7535
    }
  },
  {
    "team": "core",
    "package": "@atlaskit/checkbox",
    "version": "8.0.0",
    "dependent": true,
    "id": "combined.main",
    "name": "main",
    "stats": {
      "size": 43749,
      "gzipSize": 11775
    }
  }
]