[
  {
    "id": "src.main",
    "name": "main",
    "stats": {
      "size": 7170,
      "gzipSize": 1978
    }
  },
  {
    "id": "node_modules.main",
    "name": "node_modules [main]",
    "stats": {
      "size": 124286,
      "gzipSize": 26520
    }
  },
  {
    "id": "node_modules.async",
    "name": "node_modules [async]",
    "stats": {
      "size": 11779,
      "gzipSize": 3921
    }
  },
  {
    "id": "atlaskit.media.main",
    "name": "main",
    "stats": {
      "size": 40108,
      "gzipSize": 8032
    }
  },
  {
    "id": "atlaskit.media.async",
    "name": "async",
    "stats": {
      "size": 1702,
      "gzipSize": 736
    }
  },
  {
    "id": "combined.main",
    "name": "main",
    "stats": {
      "size": 171062,
      "gzipSize": 36534
    }
  },
  {
    "id": "combined.async",
    "name": "async",
    "stats": {
      "size": 13421,
      "gzipSize": 4452
    }
  }
]