[
  {
    "team": "core",
    "package": "@atlaskit/calendar",
    "version": "8.0.0",
    "dependent": true,
    "id": "src.main",
    "name": "main",
    "stats": {
      "size": 14176,
      "gzipSize": 4578
    }
  },
  {
    "team": "core",
    "package": "@atlaskit/calendar",
    "version": "8.0.0",
    "dependent": true,
    "id": "node_modules.main",
    "name": "node_modules [main]",
    "stats": {
      "size": 41039,
      "gzipSize": 13017
    }
  },
  {
    "team": "core",
    "package": "@atlaskit/calendar",
    "version": "8.0.0",
    "dependent": true,
    "id": "atlaskit.core.main",
    "name": "main",
    "stats": {
      "size": 47690,
      "gzipSize": 12468
    }
  },
  {
    "team": "core",
    "package": "@atlaskit/calendar",
    "version": "8.0.0",
    "dependent": true,
    "id": "combined.main",
    "name": "main",
    "stats": {
      "size": 101434,
      "gzipSize": 28672
    }
  }
]